   0.00000000
   0.00000000
   0.00000000
   0.00000000
   0.00000000
   0.00000000
   0.00000000
   0.00000000
   0.00000000
   0.00000000
   0.00000000
   0.00000000
   0.00000000
   0.00000000
   0.00000000
   0.00000000
   0.00000000
   0.00000000
   0.00000000
   0.00000000
   0.00000000
   0.00000000
   0.00000000
   0.00000000
   0.00000000
   0.00000000
   0.00000000
   0.00000000
   0.00000000
   0.00000000
   0.00000000
   0.00000000
   0.00000000
   0.00000000
   0.00000000
   0.00000000
   0.00000000
   0.00000000
   0.00000000
   0.00000000
   0.00000000
   0.00000000
   0.00000000
   0.00000000
   0.00000000
   0.00000000
   0.00000000
   0.00000000
   0.00000000
   0.00000000
   0.00000000
   0.00000000
   0.00000000
   0.00000000
   0.00000000
   0.00000000
   0.00000000
   0.00000000
   0.00000000
   0.00000000
   0.00000000
   0.00000000
   0.00000000
   0.00000000
   0.00000000
   0.00000000
   0.00000000
   0.00000000
   0.00000000
   0.00000000
   0.00000000
   0.00000000
   0.00000000
   0.00000000
   0.00000000
   0.00000000
   0.00000000
   0.00000000
   0.00000000
   0.00000000
   0.00000000
   0.00000000
   0.00000000
   0.00000000
   0.00000000
   0.00000000
   0.00000000
   0.00000000
   0.00000000
   0.00000000
   0.00000000
   0.00000000
   0.00000000
   0.00000000
   0.00000000
   0.00000000
   0.00000000
   0.00000000
   0.00000000
   0.00000000
   0.00000000
   0.00000000
   0.00000000
   0.00000000
   0.00000000
   0.00000000
   0.00000000
   0.00000000
   0.00000000
   0.00000000
   0.00000000
   0.00000000
   0.00000000
   0.00000000
   0.00000000
   0.00000000
   0.00000000
   0.00000000
   0.00000000
   0.00000000
   0.00000000
   0.00000000
   0.00000000
   0.00000000
   0.00000000
   0.00000000
   0.00000000
   0.00000000
   0.00000000
   0.00000000
   0.00000000
   0.00000000
   0.00000000
   0.00000000
   0.00000000
   0.00000000
   0.00000000
   0.00000000
   0.00000000
   0.00000000
   0.00000000
   0.00000000
   0.00000000
   0.00000000
   0.00000000
   0.00000000
   0.00000000
   0.00000000
   0.00000000
   0.00000000
   0.00000000
   0.00000000
   0.00000000
   0.00000000
   0.00000000
   0.00000000
   0.00000000
   0.00000000
   0.00000000
   0.00000000
   0.00000000
   0.00000000
   0.00000000
   0.00000000
   0.00000000
   0.00000000
   0.00000000
   0.00000000
   0.00000000
   0.00000000
   0.00000000
   0.00000000
   0.00000000
   0.00000000
   0.00000000
   0.00000000
   0.00000000
   0.00000000
   0.00000000
   0.00000000
   0.00000000
   0.00000000
   0.00000000
   0.00000000
   0.00000000
   0.00000000
   0.00000000
   0.00000000
   0.00000000
   0.00000000
   0.00000000
   0.00000000
   0.00000000
   0.00000000
   0.00000000
   0.00000000
   0.00000000
   0.00000000
   0.00000000
   0.00000000
   0.00000000
   0.00000000
   0.00000000
   0.00000000
   0.00000000
   0.00000000
   0.00000000
   0.00000000
   0.00000000
   0.00000000
   0.00000000
   0.00000000
   0.00000000
   0.00000000
   0.00000000
   0.00000000
   0.00000000
   0.00000000
   0.00000000
   0.00000000
   0.00000000
   0.00000000
   0.00000000
   0.00000000
   0.00000000
   0.00000000
   0.00000000
   0.00000000
   0.00000000
   0.00000000
   0.00000000
   0.00000000
   0.00000000
   0.00000000
   0.00000000
   0.00000000
   0.00000000
   0.00000000
   0.00000000
   0.00000000
   0.00000000
   0.00000000
   0.00000000
   0.00000000
   0.00000000
   0.00000000
   0.00000000
   0.00000000
   0.00000000
   0.00000000
   0.00000000
   0.00000000
   0.00000000
   0.00000000
   0.00000000
   0.00000000
   0.00000000
   0.00000000
   0.00000000
   0.00000000
   0.00000000
   0.00000000
   0.00000000
   0.00000000
   0.00000000
   0.00000000
   0.00000000
   0.00000000
   0.00000000
   0.00000000
   0.00000000
   0.00000000
   0.00000000
   0.00000000
   0.00000000
   0.00000000
   0.00000000
   0.00000000
   0.00000000
   0.00000000
   0.00000000
   0.00000000
   0.00000000
   0.00000000
   0.00000000
   0.00000000
   0.00000000
   0.00000000
   0.00000000
   0.00000000
   0.00000000
   0.00000000
   0.00000000
   0.00000000
   0.00000000
   0.00000000
   0.00000000
   0.00000000
   0.00000000
   0.00000000
   0.00000000
   0.00000000
   0.00000000
   0.00000000
   0.00000000
   0.00000000
   0.00000000
   0.00000000
   0.00000000
   0.00000000
   0.00000000
   0.00000000
   0.00000000
   0.00000000
   0.00000000
   0.00000000
   0.00000000
   0.00000000
   0.00000000
   0.00000000
   0.00000000
   0.00000000
   0.00000000
   0.00000000
   0.00000000
   0.00000000
   0.00000000
   0.00000000
   0.00000000
   0.00000000
   0.00000000
   0.00000000
   0.00000000
   0.00000000
   0.00000000
   0.00000000
   0.00000000
   0.00000000
   0.00000000
   0.00000000
   0.00000000
   0.00000000
   0.00000000
   0.00000000
   0.00000000
   0.00000000
   0.00000000
   0.00000000
   0.00000000
   0.00000000
   0.00000000
   0.00000000
   0.00000000
   0.00000000
   0.00000000
   0.00000000
   0.00000000
   0.00000000
   0.00000000
   0.00000000
   0.00000000
   0.00000000
   0.00000000
   0.00000000
   0.00000000
   0.00000000
   0.00000000
   0.00000000
   0.00000000
   0.00000000
   0.00000000
   0.00000000
   0.00000000
   0.00000000
   0.00000000
   0.00000000
   0.00000000
   0.00000000
   0.00000000
   0.00000000
   0.00000000
   0.00000000
   0.00000000
   0.00000000
   0.00000000
   0.00000000
   0.00000000
   0.00000000
   0.00000000
   0.00000000
   0.00000000
   0.00000000
   0.00000000
   0.00000000
   0.00000000
   0.00000000
   0.00000000
   0.00000000
   0.00000000
   0.00000000
   0.00000000
   0.00000000
   0.00000000
   0.00000000
   0.00000000
   0.00000000
   0.00000000
   0.00000000
   0.00000000
   0.00000000
   0.00000000
   0.00000000
   0.00000000
   0.00000000
   0.00000000
   0.00000000
   0.00000000
   0.00000000
   0.00000000
   0.00000000
   0.00000000
   0.00000000
   0.00000000
   0.00000000
   0.00000000
   0.00000000
   0.00000000
   0.00000000
   0.00000000
   0.00000000
   0.00000000
   0.00000000
   0.00000000
   0.00000000
   0.00000000
   0.00000000
   0.00000000
   0.00000000
   0.00000000
   0.00000000
   0.00000000
   0.00000000
   0.00000000
   0.00000000
   0.00000000
   0.00000000
   0.00000000
   0.00000000
   0.00000000
   0.00000000
   0.00000000
   0.00000000
   0.00000000
   0.00000000
   0.00000000
   0.00000000
   0.00000000
   0.00000000
   0.00000000
   0.00000000
   0.00000000
   0.00000000
   0.00000000
   0.00000000
   0.00000000
   0.00000000
   0.00000000
   0.00000000
   0.00000000
   0.00000000
   0.00000000
   0.00000000
   0.00000000
   0.00000000
   0.00000000
   0.00000000
   0.00000000
   0.00000000
   0.00000000
   0.00000000
   0.00000000
   0.00000000
   0.00000000
   0.00000000
   0.00000000
   0.00000000
   0.00000000
   0.00000000
   0.00000000
   0.00000000
   0.00000000
   0.00000000
   0.00000000
   0.00000000
   0.00000000
   0.00000000
   0.00000000
   0.00000000
   0.00000000
   0.00000000
   0.00000000
   0.00000000
   0.00000000
   0.00000000
   0.00000000
   0.00000000
   0.00000000
   0.00000000
   0.00000000
   0.00000000
   0.00000000
   0.00000000
   0.00000000
   0.00000000
   0.00000000
   0.00000000
   0.00000000
   0.00000000
   0.00000000
   0.00000000
   0.00000000
   0.00000000
   0.00000000
   0.00000000
   0.00000000
   0.00000000
   0.00000000
   0.00000000
   0.00000000
   0.00000000
   0.00000000
   0.00000000
   0.00000000
   0.00000000
   0.00000000
   0.00000000
   0.00000000
   0.00000000
   0.00000000
   0.00000000
   0.00000000
   0.00000000
   0.00000000
   0.00000000
   0.00000000
   0.00000000
   0.00000000
   0.00000000
   0.00000000
   0.00000000
   0.00000000
   0.00000000
   0.00000000
   0.00000000
   0.00000000
   0.00000000
   0.00000000
   0.00000000
   0.00000000
   0.00000000
   0.00000000
   0.00000000
   0.00000000
   0.00000000
   0.00000000
   0.00000000
   0.00000000
   0.00000000
   0.00000000
   0.00000000
   0.00000000
   0.00000000
   0.00000000
   0.00000000
   0.00000000
   0.00000000
   0.00000000
   0.00000000
   0.00000000
   0.00000000
   0.00000000
   0.00000000
   0.00000000
   0.00000000
   0.00000000
   0.00000000
   0.00000000
   0.00000000
   0.00000000
   0.00000000
   0.00000000
   0.00000000
   0.00000000
   0.00000000
   0.00000000
   0.00000000
   0.00000000
   0.00000000
   0.00000000
   0.00000000
   0.00000000
   0.00000000
   0.00000000
   0.00000000
   0.00000000
   0.00000000
   0.00000000
   0.00000000
   0.00000000
   0.00000000
   0.00000000
   0.00000000
   0.00000000
   0.00000000
   0.00000000
   0.00000000
   0.00000000
   0.00000000
   0.00000000
   0.00000000
   0.00000000
   0.00000000
   0.00000000
   0.00000000
   0.00000000
   0.00000000
   0.00000000
   0.00000000
   0.00000000
   0.00000000
   0.00000000
   0.00000000
   0.00000000
   0.00000000
   0.00000000
   0.00000000
   0.00000000
   0.00000000
   0.00000000
   0.00000000
   0.00000000
   0.00000000
   0.00000000
   0.00000000
   0.00000000
   0.00000000
   0.00000000
   0.00000000
   0.00000000
   0.00000000
   0.00000000
   0.00000000
   0.00000000
   0.00000000
   0.00000000
   0.00000000
   0.00000000
   0.00000000
   0.00000000
   0.00000000
   0.00000000
   0.00000000
   0.00000000
   0.00000000
   0.00000000
   0.00000000
   0.00000000
   0.00000000
   0.00000000
   0.00000000
   0.00000000
   0.00000000
   0.00000000
   0.00000000
   0.00000000
   0.00000000
   0.00000000
   0.00000000
   0.00000000
   0.00000000
   0.00000000
   0.00000000
   0.00000000
   0.00000000
   0.00000000
   0.00000000
   0.00000000
   0.00000000
   0.00000000
   0.00000000
   0.00000000
   0.00000000
   0.00000000
   0.00000000
   0.00000000
   0.00000000
   0.00000000
   0.00000000
   0.00000000
   0.00000000
   0.00000000
   0.00000000
   0.00000000
   0.00000000
   0.00000000
   0.00000000
   0.00000000
   0.00000000
   0.00000000
   0.00000000
   0.00000000
   0.00000000
   0.00000000
   0.00000000
   0.00000000
   0.00000000
   0.00000000
   0.00000000
   0.00000000
   0.00000000
   0.00000000
   0.00000000
   0.00000000
   0.00000000
   0.00000000
   0.00000000
   0.00000000
   0.00000000
   0.00000000
   0.00000000
   0.00000000
   0.00000000
   0.00000000
   0.00000000
   0.00000000
   0.00000000
   0.00000000
   0.00000000
   0.00000000
   0.00000000
   0.00000000
   0.00000000
   0.00000000
   0.00000000
   0.00000000
   0.00000000
   0.00000000
   0.00000000
   0.00000000
   0.00000000
   0.00000000
   0.00000000
   0.00000000
   0.00000000
   0.00000000
   0.00000000
   0.00000000
   0.00000000
   0.00000000
   0.00000000
   0.00000000
   0.00000000
   0.00000000
   0.00000000
   0.00000000
   0.00000000
   0.00000000
   0.00000000
   0.00000000
   0.00000000
   0.00000000
   0.00000000
   0.00000000
   0.00000000
   0.00000000
   0.00000000
   0.00000000
   0.00000000
   0.00000000
   0.00000000
   0.00000000
   0.00000000
   0.00000000
   0.00000000
   0.00000000
   0.00000000
   0.00000000
   0.00000000
   0.00000000
   0.00000000
   0.00000000
   0.00000000
   0.00000000
   0.00000000
   0.00000000
   0.00000000
   0.00000000
   0.00000000
   0.00000000
   0.00000000
   0.00000000
   0.00000000
   0.00000000
   0.00000000
   0.00000000
   0.00000000
   0.00000000
   0.00000000
   0.00000000
   0.00000000
   0.00000000
   0.00000000
   0.00000000
   0.00000000
   0.00000000
   0.00000000
   0.00000000
   0.00000000
   0.00000000
   0.00000000
   0.00000000
   0.00000000
   0.00000000
   0.00000000
   0.00000000
   0.00000000
   0.00000000
   0.00000000
   0.00000000
   0.00000000
   0.00000000
   0.00000000
   0.00000000
   0.00000000
   0.00000000
   0.00000000
   0.00000000
   0.00000000
   0.00000000
   0.00000000
   0.00000000
   0.00000000
   0.00000000
   0.00000000
   0.00000000
   0.00000000
   0.00000000
   0.00000000
   0.00000000
   0.00000000
   0.00000000
   0.00000000
   0.00000000
   0.00000000
   0.00000000
   0.00000000
   0.00000000
   0.00000000
   0.00000000
   0.00000000
   0.00000000
   0.00000000
   0.00000000
   0.00000000
   0.00000000
   0.00000000
   0.00000000
   0.00000000
   0.00000000
   0.00000000
   0.00000000
   0.00000000
   0.00000000
   0.00000000
   0.00000000
   0.00000000
   0.00000000
   0.00000000
   0.00000000
   0.00000000
   0.00000000
   0.00000000
   0.00000000
   0.00000000
   0.00000000
   0.00000000
   0.00000000
   0.00000000
   0.00000000
   0.00000000
   0.00000000
   0.00000000
   0.00000000
   0.00000000
   0.00000000
   0.00000000
   0.00000000
   0.00000000
   0.00000000
   0.00000000
   0.00000000
   0.00000000
   0.00000000
   0.00000000
   0.00000000
   0.00000000
   0.00000000
   0.00000000
   0.00000000
   0.00000000
   0.00000000
   0.00000000
   0.00000000
   0.00000000
   0.00000000
   0.00000000
   0.00000000
   0.00000000
   0.00000000
   0.00000000
   0.00000000
   0.00000000
   0.00000000
   0.00000000
   0.00000000
   0.00000000
   0.00000000
   0.00000000
   0.00000001
   0.00000001
   0.00000000
   0.00000001
   0.00000000
   0.00000000
   0.00000001
   0.00000001
   0.00000000
   0.00000000
   0.00000000
   0.00000001
   0.00000000
   0.00000000
   0.00000002
   0.00000003
   0.00000001
   0.00000001
   0.00000000
   0.00000002
   0.00000003
   0.00000002
   0.00000003
   0.00000002
   0.00000003
   0.00000006
   0.00000006
   0.00000004
   0.00000006
   0.00000009
   0.00000006
   0.00000008
   0.00000011
   0.00000013
   0.00000011
   0.00000013
   0.00000014
   0.00000018
   0.00000022
   0.00000020
   0.00000023
   0.00000029
   0.00000034
   0.00000033
   0.00000040
   0.00000045
   0.00000053
   0.00000054
   0.00000066
   0.00000072
   0.00000074
   0.00000094
   0.00000093
   0.00000125
   0.00000113
   0.00000147
   0.00000150
   0.00000163
   0.00000197
   0.00000220
   0.00000256
   0.00000286
   0.00000304
   0.00000338
   0.00000400
   0.00000425
   0.00000461
   0.00000545
   0.00000615
   0.00000665
   0.00000746
   0.00000849
   0.00000919
   0.00001001
   0.00001146
   0.00001301
   0.00001407
   0.00001622
   0.00001738
   0.00001935
   0.00002124
   0.00002308
   0.00002504
   0.00002705
   0.00002964
   0.00003130
   0.00003365
   0.00003568
   0.00003709
   0.00003930
   0.00004093
   0.00004195
   0.00004314
   0.00004373
   0.00004402
   0.00004346
   0.00184025
   0.00029739
   0.00017586
   0.00017741
   0.00017879
   0.00017814
   0.00017726
   0.00017658
   0.00017490
   0.00017522
   0.00017276
   0.00017337
   0.00017130
   0.00017040
   0.00016864
   0.00016701
   0.00016580
   0.00016576
   0.00016495
   0.00016395
   0.00016200
   0.00016171
   0.00016024
   0.00016204
   0.00016035
   0.00015914
   0.00015794
   0.00015621
   0.00015503
   0.00015221
   0.00014952
   0.00014709
   0.00014332
   0.00014270
   0.00014026
   0.00013964
   0.00013641
   0.00013314
   0.00013074
   0.00012886
   0.00012748
   0.00012581
   0.00012516
   0.00012426
   0.00012388
   0.00012439
   0.00012367
   0.00012332
   0.00012476
   0.00012376
   0.00012415
   0.00012567
   0.00012714
   0.00012608
   0.00012800
   0.00012988
   0.00013110
   0.00013384
   0.00013567
   0.00013671
   0.00013779
   0.00014131
   0.00014397
   0.00014625
   0.00014861
   0.00015129
   0.00015412
   0.00015775
   0.00016073
   0.00016511
   0.00016762
   0.00017186
   0.00017551
   0.00017894
   0.00018440
   0.00018787
   0.00019226
   0.00019749
   0.00020119
   0.00020842
   0.00021396
   0.00021773
   0.00022432
   0.00022985
   0.00023490
   0.00024091
   0.00024862
   0.00025221
   0.00026005
   0.00026455
   0.00026945
   0.00027811
   0.00028339
   0.00028880
   0.00029433
   0.00030264
   0.00030994
   0.00031312
   0.00031887
   0.00032551
   0.00033269
   0.00033937
   0.00034403
   0.00035153
   0.00035616
   0.00036074
   0.00036653
   0.00037200
   0.00037609
   0.00038511
   0.00039196
   0.00039305
   0.00039795
   0.00040343
   0.00040651
   0.00041143
   0.00041730
   0.00042070
   0.00042663
   0.00043220
   0.00043472
   0.00043778
   0.00044297
   0.00044722
   0.00044971
   0.00045299
   0.00045655
   0.00045935
   0.00046376
   0.00046507
   0.00047066
   0.00047133
   0.00047395
   0.00047662
   0.00047934
   0.00048064
   0.00048012
   0.00048293
   0.00048148
   0.00048309
   0.00048514
   0.00048401
   0.00048573
   0.00048424
   0.00048478
   0.00048694
   0.00048488
   0.00048240
   0.00047954
   0.00048165
   0.00047815
   0.00047647
   0.00047671
   0.00047277
   0.00047268
   0.00047200
   0.00046728
   0.00046646
   0.00046231
   0.00046348
   0.00045990
   0.00045773
   0.00045672
   0.00045528
   0.00045231
   0.00045014
   0.00044835
   0.00044582
   0.00044370
   0.00044274
   0.00044171
   0.00043789
   0.00043580
   0.00043620
   0.00043057
   0.00043017
   0.00042602
   0.00042440
   0.00042242
   0.00042288
   0.00042011
   0.00041834
   0.00041588
   0.00041320
   0.00041115
   0.00041117
   0.00040607
   0.00040700
   0.00040446
   0.00040260
   0.00040020
   0.00039768
   0.00039525
   0.00039320
   0.00039112
   0.00038747
   0.00038443
   0.00038322
   0.00037919
   0.00037899
   0.00037666
   0.00037267
   0.00036990
   0.00036804
   0.00036680
   0.00036370
   0.00036139
   0.00035839
   0.00035467
   0.00035255
   0.00034937
   0.00034681
   0.00034292
   0.00034052
   0.00033522
   0.00033317
   0.00032876
   0.00032646
   0.00032374
   0.00032228
   0.00031666
   0.00031391
   0.00031090
   0.00030727
   0.00030316
   0.00029853
   0.00029591
   0.00029383
   0.00028979
   0.00028929
   0.00028113
   0.00027824
   0.00027597
   0.00027105
   0.00026717
   0.00026218
   0.00026007
   0.00025467
   0.00025473
   0.00024969
   0.00024383
   0.00024155
   0.00023922
   0.00023482
   0.00023252
   0.00022717
   0.00022443
   0.00022215
   0.00021812
   0.00021584
   0.00021312
   0.00020831
   0.00020619
   0.00020283
   0.00020105
   0.00019638
   0.00019308
   0.00019121
   0.00018859
   0.00018577
   0.00018170
   0.00018040
   0.00017796
   0.00017442
   0.00017205
   0.00016888
   0.00016752
   0.00016406
   0.00016153
   0.00015941
   0.00015756
   0.00015527
   0.00015233
   0.00014988
   0.00014854
   0.00014685
   0.00014385
   0.00014104
   0.00014032
   0.00013765
   0.00013691
   0.00013461
   0.00013200
   0.00013004
   0.00012854
   0.00012744
   0.00012518
   0.00012376
   0.00012190
   0.00012052
   0.00011932
   0.00011814
   0.00011572
   0.00011431
   0.00011265
   0.00011085
   0.00010933
   0.00010831
   0.00010692
   0.00010607
   0.00010498
   0.00010262
   0.00010134
   0.00010166
   0.00009806
   0.00009885
   0.00009699
   0.00009490
   0.00009557
   0.00009369
   0.00009289
   0.00009195
   0.00009324
   0.00009056
   0.00008971
   0.00008900
   0.00008840
   0.00008752
   0.00008613
   0.00008538
   0.00008460
   0.00008381
   0.00008232
   0.00008226
   0.00008181
   0.00008047
   0.00008068
   0.00007858
   0.00007812
   0.00007796
   0.00007659
   0.00007684
   0.00007612
   0.00007503
   0.00007452
   0.00007316
   0.00007275
   0.00007186
   0.00007259
   0.00007128
   0.00006994
   0.00006965
   0.00006908
   0.00006947
   0.00006784
   0.00006665
   0.00006762
   0.00006711
   0.00006617
   0.00006525
   0.00006481
   0.00006414
   0.00006461
   0.00006351
   0.00006335
   0.00006213
   0.00006204
   0.00006196
   0.00006185
   0.00006158
   0.00006070
   0.00006008
   0.00005903
   0.00005990
   0.00005911
   0.00005821
   0.00005902
   0.00005826
   0.00005635
   0.00005742
   0.00005663
   0.00005574
   0.00005574
   0.00005559
   0.00005434
   0.00005485
   0.00005481
   0.00005367
   0.00005451
   0.00005300
   0.00005335
   0.00005308
   0.00005290
   0.00005296
   0.00005160
   0.00005177
   0.00005127
   0.00005106
   0.00005089
   0.00005095
   0.00005109
   0.00005049
   0.00005012
   0.00005034
   0.00004934
   0.00004888
   0.00004858
   0.00004974
   0.00004840
   0.00004813
   0.00004823
   0.00004762
   0.00004746
   0.00004711
   0.00004709
   0.00004707
   0.00004634
   0.00004594
   0.00004612
   0.00004641
   0.00004651
   0.00004581
   0.00004482
   0.00004532
   0.00004490
   0.00004543
   0.00004495
   0.00004454
   0.00004460
   0.00004473
   0.00004404
   0.00004419
   0.00004379
   0.00004415
   0.00004297
   0.00004323
   0.00004311
   0.00004229
   0.00004265
   0.00004240
   0.00004232
   0.00004260
   0.00004217
   0.00004163
   0.00004151
   0.00004176
   0.00004115
   0.00004091
   0.00004126
   0.00004151
   0.00004133
   0.00004127
   0.00004070
   0.00004091
   0.00004035
   0.00004009
   0.00003967
   0.00003975
   0.00004006
   0.00003927
   0.00003994
   0.00003946
   0.00003932
   0.00003935
   0.00003957
   0.00003943
   0.00004058
   0.00003869
   0.00003880
   0.00003860
   0.00003844
   0.00003935
   0.00003806
   0.00003751
   0.00003838
   0.00003789
   0.00003876
   0.00003733
   0.00003777
   0.00003739
   0.00003711
   0.00003767
   0.00003805
   0.00003732
   0.00003762
   0.00003713
   0.00003758
   0.00003628
   0.00003644
   0.00003628
   0.00003667
   0.00003651
   0.00003695
   0.00003695
   0.00003690
   0.00003644
   0.00003631
   0.00003617
   0.00003577
   0.00003636
   0.00003529
   0.00003603
   0.00003589
   0.00003613
   0.00003568
   0.00003579
   0.00003626
   0.00003550
   0.00003540
   0.00003531
   0.00003513
   0.00003559
   0.00003581
   0.00003504
   0.00003590
   0.00003500
   0.00003481
   0.00003516
   0.00003446
   0.00003479
   0.00003432
   0.00003486
   0.00003434
   0.00003480
   0.00003508
   0.00003480
   0.00003461
   0.00003484
   0.00003449
   0.00003486
   0.00003428
   0.00003432
   0.00003427
   0.00003436
   0.00003496
   0.00003442
   0.00003377
   0.00003446
   0.00003384
   0.00003414
   0.00003396
   0.00003414
   0.00003465
   0.00003344
   0.00003398
   0.00003402
   0.00003406
   0.00003388
   0.00003385
   0.00003361
   0.00003353
   0.00003352
   0.00003394
   0.00003371
   0.00003410
   0.00003346
   0.00003434
   0.00003352
   0.00003358
   0.00003377
   0.00003369
   0.00003353
   0.00003361
   0.00003324
   0.00003312
   0.00003317
   0.00003356
   0.00003310
   0.00003362
   0.00003354
   0.00003374
   0.00003341
   0.00003321
   0.00003369
   0.00003293
   0.00003308
   0.00003264
   0.00003313
   0.00003291
   0.00003302
   0.00003324
   0.00003300
   0.00003346
   0.00003254
   0.00003439
   0.00003487
   0.00003426
   0.00003380
   0.00003440
   0.00003404
   0.00003448
   0.00003443
   0.00003442
   0.00003412
   0.00003467
   0.00003426
   0.00003472
   0.00003420
   0.00003540
   0.00003427
   0.00003514
   0.00003499
   0.00003505
   0.00003539
   0.00003533
   0.00003488
   0.00003547
   0.00003549
   0.00003578
   0.00003525
   0.00003538
   0.00003492
   0.00003462
   0.00003483
   0.00003553
   0.00003495
   0.00003525
   0.00003542
   0.00003513
   0.00003462
   0.00003507
   0.00003515
   0.00003553
   0.00003479
   0.00003555
   0.00003523
   0.00003467
   0.00003480
   0.00003530
   0.00003520
   0.00003515
   0.00003571
   0.00003564
   0.00003554
   0.00003523
   0.00003578
   0.00003455
   0.00003502
   0.00003515
   0.00003507
   0.00003544
   0.00003589
   0.00003479
   0.00003557
   0.00003565
   0.00003546
   0.00003560
   0.00003485
   0.00003605
   0.00003562
   0.00003496
   0.00003494
   0.00003577
   0.00003524
   0.00003726
   0.00003653
   0.00003627
   0.00003639
   0.00003697
   0.00003621
   0.00003675
   0.00003691
   0.00003619
   0.00003693
   0.00003581
   0.00003676
   0.00003651
   0.00003641
   0.00003672
   0.00003655
   0.00003671
   0.00003699
   0.00003671
   0.00003669
   0.00003660
   0.00003677
   0.00003727
   0.00003677
   0.00003699
   0.00003683
   0.00003693
   0.00003709
   0.00003698
   0.00003734
   0.00003703
   0.00003807
   0.00003692
   0.00003674
   0.00003754
   0.00003733
   0.00003772
   0.00003710
   0.00003721
   0.00003730
   0.00003905
   0.00003771
   0.00003754
   0.00003882
   0.00003973
   0.00003918
   0.00003893
   0.00003934
   0.00003963
   0.00003966
   0.00003950
   0.00003934
   0.00004045
   0.00003974
   0.00004002
   0.00003992
   0.00004008
   0.00004075
   0.00004021
   0.00004037
   0.00004087
   0.00004088
   0.00004038
   0.00004006
   0.00004114
   0.00004089
   0.00004147
   0.00004053
   0.00004077
   0.00004085
   0.00004129
   0.00004161
   0.00004092
   0.00004181
   0.00004125
   0.00004093
   0.00004144
   0.00004139
   0.00004170
   0.00004145
   0.00004425
   0.00004591
   0.00004570
   0.00004664
   0.00004617
   0.00004617
   0.00004667
   0.00004627
   0.00004625
   0.00004672
   0.00004655
   0.00004763
   0.00004724
   0.00004686
   0.00004676
   0.00004746
   0.00004803
   0.00004777
   0.00004821
   0.00004729
   0.00004857
   0.00004862
   0.00004838
   0.00004831
   0.00004825
   0.00004930
   0.00004944
   0.00004914
   0.00004889
   0.00004909
   0.00004956
   0.00004966
   0.00004973
   0.00004932
   0.00005005
   0.00005054
   0.00005010
   0.00005052
   0.00005098
   0.00005139
   0.00005208
   0.00005115
   0.00005143
   0.00005192
   0.00005141
   0.00005447
   0.00005419
   0.00005381
   0.00005461
   0.00005474
   0.00005616
   0.00005652
   0.00005748
   0.00005805
   0.00005830
   0.00005852
   0.00005954
   0.00005903
   0.00006039
   0.00006036
   0.00006016
   0.00006112
   0.00006144
   0.00006155
   0.00006216
   0.00006188
   0.00006276
   0.00006287
   0.00006328
   0.00006523
   0.00006568
   0.00006711
   0.00006765
   0.00006821
   0.00006904
   0.00006955
   0.00007135
   0.00007255
   0.00007220
   0.00007264
   0.00007420
   0.00007523
   0.00007564
   0.00007686
   0.00007749
   0.00007961
   0.00007886
   0.00008145
   0.00008227
   0.00008354
   0.00008384
   0.00008612
   0.00008715
   0.00008788
   0.00009037
   0.00009226
   0.00009369
   0.00009521
   0.00009771
   0.00009849
   0.00010286
   0.00010524
   0.00010627
   0.00010926
   0.00011178
   0.00011422
   0.00011679
   0.00012014
   0.00012240
   0.00012762
   0.00012959
   0.00013343
   0.00013648
   0.00014059
   0.00014470
   0.00014935
   0.00015371
   0.00015735
   0.00016432
   0.00017034
   0.00017351
   0.00018050
   0.00018544
   0.00019361
   0.00020036
   0.00020790
   0.00021611
   0.00022411
   0.00023136
   0.00023936
   0.00025002
   0.00025927
   0.00026870
   0.00028090
   0.00029292
   0.00030339
   0.00031836
   0.00032920
   0.00034364
   0.00035813
   0.00037614
   0.00039252
   0.00041106
   0.00042922
   0.00044935
   0.00047476
   0.00049574
   0.00052297
   0.00054796
   0.00057837
   0.00060837
   0.00064385
   0.00068066
   0.00072021
   0.00076181
   0.00080676
   0.00085981
   0.00091293
   0.00097265
   0.00103886
   0.00110773
   0.00118359
   0.00126799
   0.00135728
   0.00145156
   0.00155451
   0.00166817
   0.00178537
   0.00191082
   0.00204590
   0.00218780
   0.00234084
   0.00249523
   0.00265733
   0.00282583
   0.00299742
   0.00317090
   0.00335507
   0.00353552
   0.00371757
   0.00389596
   0.00407436
   0.00424838
   0.00442022
   0.00457344
   0.00472079
   0.00486696
   0.00518719
   0.00513135
   0.00522429
   0.00531352
   0.00537684
   0.00544242
   0.00548798
   0.00551535
   0.00552925
   0.00552825
   0.00551700
   0.00549252
   0.00544458
   0.00539362
   0.00533331
   0.00525851
   0.00517880
   0.00509179
   0.00499093
   0.00490160
   0.00479356
   0.00470284
   0.00458434
   0.00447775
   0.00436798
   0.00425218
   0.00414284
   0.00403167
   0.00392977
   0.00382308
   0.00372830
   0.00361915
   0.00352637
   0.00342895
   0.00333916
   0.00325011
   0.00316044
   0.00308110
   0.00300509
   0.00293106
   0.00285543
   0.00278329
   0.00271475
   0.00266033
   0.00259710
   0.00253722
   0.00248324
   0.00243545
   0.00238504
   0.00233416
   0.00229256
   0.00224743
   0.00221068
   0.00217362
   0.00213799
   0.00210069
   0.00206705
   0.00204347
   0.00201130
   0.00198629
   0.00195893
   0.00193693
   0.00191292
   0.00189124
   0.00186741
   0.00185193
   0.00183524
   0.00181700
   0.00180442
   0.00178650
   0.00177420
   0.00175944
   0.00174896
   0.00173446
   0.00172807
   0.00172226
   0.00171038
   0.00170507
   0.00169632
   0.00168989
   0.00168863
   0.00168423
   0.00168186
   0.00167943
   0.00167453
   0.00167283
   0.00167569
   0.00167332
   0.00167382
   0.00167842
   0.00167779
   0.00168111
   0.00168460
   0.00169259
   0.00170100
   0.00170298
   0.00170778
   0.00171927
   0.00172446
   0.00173161
   0.00174470
   0.00175302
   0.00177027
   0.00178125
   0.00179336
   0.00180691
   0.00181964
   0.00183608
   0.00185049
   0.00187395
   0.00189026
   0.00190565
   0.00192495
   0.00202844
   0.00196719
   0.00199157
   0.00201412
   0.00203810
   0.00206071
   0.00208760
   0.00211580
   0.00214087
   0.00216755
   0.00219699
   0.00222608
   0.00225284
   0.00228299
   0.00231564
   0.00234668
   0.00238348
   0.00241834
   0.00245135
   0.00248063
   0.00251270
   0.00256411
   0.00259836
   0.00262983
   0.00266785
   0.00270801
   0.00274713
   0.00278858
   0.00282848
   0.00287093
   0.00290939
   0.00295588
   0.00299586
   0.00303586
   0.00309256
   0.00312389
   0.00316880
   0.00321041
   0.00325405
   0.00329848
   0.00334935
   0.00338074
   0.00342052
   0.00345829
   0.00349826
   0.00353273
   0.00357307
   0.00360933
   0.00363615
   0.00366361
   0.00369689
   0.00372063
   0.00374187
   0.00375769
   0.00376772
   0.00378721
   0.00379339
   0.00379960
   0.00379290
   0.00377872
   0.00377352
   0.00376015
   0.00374106
   0.00370927
   0.00368079
   0.00363948
   0.00360098
   0.00355775
   0.00351838
   0.00346568
   0.00340958
   0.00335853
   0.00331002
   0.00325619
   0.00319214
   0.00314017
   0.00308677
   0.00303092
   0.00297713
   0.00292906
   0.00288134
   0.00283662
   0.00279048
   0.00275926
   0.00272830
   0.00269709
   0.00267032
   0.00264856
   0.00263669
   0.00262181
   0.00260540
   0.00260136
   0.00260364
   0.00260382
   0.00261059
   0.00262150
   0.00263043
   0.00263768
   0.00264827
   0.00266242
   0.00268043
   0.00268644
   0.00269862
   0.00270248
   0.00270662
   0.00270044
   0.00270030
   0.00269358
   0.00268090
   0.00265740
   0.00263638
   0.00260379
   0.00257783
   0.00254249
   0.00263651
   0.00246119
   0.00241704
   0.00236886
   0.00231477
   0.00226505
   0.00221259
   0.00216055
   0.00210557
   0.00205084
   0.00199531
   0.00193839
   0.00188259
   0.00182558
   0.00177586
   0.00172049
   0.00166677
   0.00161791
   0.00156528
   0.00151993
   0.00147407
   0.00143179
   0.00138912
   0.00134618
   0.00131390
   0.00127301
   0.00124107
   0.00121229
   0.00117709
   0.00115207
   0.00113194
   0.00110437
   0.00108947
   0.00106600
   0.00104886
   0.00103245
   0.00101992
   0.00100406
   0.00099003
   0.00097830
   0.00096714
   0.00095684
   0.00094510
   0.00093579
   0.00092537
   0.00091518
   0.00090722
   0.00089130
   0.00088343
   0.00087199
   0.00085758
   0.00084522
   0.00083585
   0.00082058
   0.00080952
   0.00079519
   0.00078174
   0.00076716
   0.00075322
   0.00073948
   0.00072308
   0.00071007
   0.00069509
   0.00067930
   0.00066554
   0.00065203
   0.00063801
   0.00062352
   0.00060629
   0.00059414
   0.00057857
   0.00056629
   0.00055033
   0.00053800
   0.00052457
   0.00051084
   0.00049755
   0.00048210
   0.00047008
   0.00045800
   0.00044780
   0.00043475
   0.00042382
   0.00041410
   0.00040261
   0.00039173
   0.00038273
   0.00037498
   0.00036814
   0.00035920
   0.00035055
   0.00034369
   0.00033556
   0.00032911
   0.00032474
   0.00031752
   0.00031152
   0.00030661
   0.00030366
   0.00029928
   0.00029074
   0.00028751
   0.00028376
   0.00028068
   0.00027570
   0.00027352
   0.00026905
   0.00026569
   0.00026008
   0.00025889
   0.00025407
   0.00025048
   0.00024859
   0.00024699
   0.00024052
   0.00023965
   0.00023716
   0.00023413
   0.00022955
   0.00022877
   0.00022729
   0.00022173
   0.00022065
   0.00021561
   0.00021542
   0.00021081
   0.00021011
   0.00020619
   0.00020394
   0.00020112
   0.00019850
   0.00019522
   0.00019364
   0.00019106
   0.00018650
   0.00018428
   0.00018385
   0.00017864
   0.00017688
   0.00017503
   0.00017154
   0.00017007
   0.00016705
   0.00016458
   0.00016081
   0.00015874
   0.00015743
   0.00015394
   0.00015216
   0.00014915
   0.00014679
   0.00014498
   0.00014408
   0.00014148
   0.00013883
   0.00013755
   0.00013477
   0.00013277
   0.00012920
   0.00012936
   0.00012828
   0.00012551
   0.00012458
   0.00012340
   0.00012149
   0.00011953
   0.00011890
   0.00011721
   0.00011578
   0.00011437
   0.00011386
   0.00011318
   0.00011165
   0.00010985
   0.00010898
   0.00010891
   0.00010634
   0.00010646
   0.00010616
   0.00010448
   0.00010396
   0.00010411
   0.00010180
   0.00010055
   0.00010087
   0.00009866
   0.00009883
   0.00009817
   0.00009826
   0.00009648
   0.00009629
   0.00009555
   0.00009311
   0.00009370
   0.00009317
   0.00009229
   0.00009229
   0.00009041
   0.00009095
   0.00009025
   0.00008965
   0.00008866
   0.00008811
   0.00008656
   0.00008645
   0.00008606
   0.00008435
   0.00008570
   0.00008552
   0.00008307
   0.00008296
   0.00008290
   0.00008273
   0.00008230
   0.00008197
   0.00008125
   0.00008130
   0.00008074
   0.00007945
   0.00007856
   0.00007942
   0.00007771
   0.00007862
   0.00007826
   0.00007705
   0.00007616
   0.00007621
   0.00007820
   0.00007571
   0.00007531
   0.00007411
   0.00007413
   0.00007435
   0.00007350
   0.00007338
   0.00007224
   0.00007210
   0.00007209
   0.00007247
   0.00007125
   0.00007146
   0.00007080
   0.00007032
   0.00007032
   0.00006880
   0.00006950
   0.00006881
   0.00006821
   0.00006805
   0.00006764
   0.00006840
   0.00006723
   0.00006669
   0.00006665
   0.00006614
   0.00006637
   0.00006601
   0.00006504
   0.00006499
   0.00006531
   0.00006521
   0.00006438
   0.00006309
   0.00006283
   0.00006287
   0.00006311
   0.00006347
   0.00006256
   0.00006196
   0.00006081
   0.00006179
   0.00006091
   0.00006116
   0.00006023
   0.00005966
   0.00005960
   0.00005971
   0.00005914
   0.00005960
   0.00005912
   0.00005880
   0.00005805
   0.00005806
   0.00005711
   0.00005776
   0.00005686
   0.00005680
   0.00005701
   0.00005567
   0.00005623
   0.00005507
   0.00005543
   0.00005441
   0.00005444
   0.00005493
   0.00005470
   0.00005397
   0.00005295
   0.00005326
   0.00005345
   0.00005275
   0.00005244
   0.00005205
   0.00005190
   0.00005146
   0.00005153
   0.00005086
   0.00005175
   0.00005071
   0.00005125
   0.00004957
   0.00005078
   0.00005051
   0.00004939
   0.00004902
   0.00004837
   0.00004879
   0.00004865
   0.00004913
   0.00004737
   0.00004819
   0.00004824
   0.00004683
   0.00004745
   0.00004737
   0.00004671
   0.00004660
   0.00004679
   0.00004627
   0.00004627
   0.00004587
   0.00004524
   0.00004629
   0.00004479
   0.00004505
   0.00004473
   0.00004390
   0.00004389
   0.00004431
   0.00004358
   0.00004384
   0.00004394
   0.00004271
   0.00004211
   0.00004340
   0.00004289
   0.00004243
   0.00004167
   0.00004121
   0.00004164
   0.00004157
   0.00004096
   0.00004054
   0.00004033
   0.00004039
   0.00004109
   0.00004023
   0.00004085
   0.00003965
   0.00003991
   0.00003946
   0.00003937
   0.00003916
   0.00003955
   0.00003912
   0.00003902
   0.00003888
   0.00003845
   0.00003838
   0.00003826
   0.00003796
   0.00003813
   0.00003748
   0.00003693
   0.00003703
   0.00003742
   0.00003740
   0.00003682
   0.00003679
   0.00003617
   0.00003654
   0.00003657
   0.00003617
   0.00003615
   0.00003553
   0.00003565
   0.00003534
   0.00003604
   0.00003508
   0.00003524
   0.00003526
   0.00003488
   0.00003501
   0.00003512
   0.00003439
   0.00003464
   0.00003413
   0.00003423
   0.00003358
   0.00003341
   0.00003363
   0.00003326
   0.00003386
   0.00003362
   0.00003313
   0.00003319
   0.00003349
   0.00003258
   0.00003262
   0.00003291
   0.00003246
   0.00003211
   0.00003193
   0.00003239
   0.00003177
   0.00003165
   0.00003190
   0.00003112
   0.00003173
   0.00003075
   0.00003117
   0.00003098
   0.00003111
   0.00003084
   0.00003067
   0.00003021
   0.00003067
   0.00003018
   0.00003050
   0.00002973
   0.00003036
   0.00002986
   0.00002922
   0.00002908
   0.00002930
   0.00002934
   0.00002892
   0.00002927
   0.00002922
   0.00002847
   0.00002899
   0.00002872
   0.00002886
   0.00002824
   0.00002867
   0.00002824
   0.00002773
   0.00002814
   0.00002759
   0.00002789
   0.00002743
   0.00002784
   0.00002752
   0.00002713
   0.00002721
   0.00002889
   0.00002718
   0.00002702
   0.00002701
   0.00002642
   0.00002681
   0.00002652
   0.00002658
   0.00002638
   0.00002631
   0.00002583
   0.00002564
   0.00002603
   0.00002598
   0.00002604
   0.00002558
   0.00002584
   0.00002543
   0.00002527
   0.00002546
   0.00002532
   0.00002516
   0.00002496
   0.00002459
   0.00002455
   0.00002446
   0.00002441
   0.00002429
   0.00002429
   0.00002402
   0.00002412
   0.00002404
   0.00002364
   0.00002402
   0.00002426
   0.00002372
   0.00002403
   0.00002323
   0.00002332
   0.00002299
   0.00002363
   0.00002333
   0.00002284
   0.00002316
   0.00002284
   0.00002238
   0.00002305
   0.00002290
   0.00002245
   0.00002260
   0.00002265
   0.00002263
   0.00002212
   0.00002232
   0.00002224
   0.00002207
   0.00002217
   0.00002154
   0.00002145
   0.00002192
   0.00002156
   0.00002118
   0.00002149
   0.00002148
   0.00002132
   0.00002135
   0.00002082
   0.00002085
   0.00002094
   0.00002100
   0.00002078
   0.00002079
   0.00002060
   0.00002067
   0.00002033
   0.00002052
   0.00002046
   0.00002023
   0.00002024
   0.00002009
   0.00001971
   0.00001995
   0.00001997
   0.00002007
   0.00001991
   0.00001938
   0.00001969
   0.00001925
   0.00001951
   0.00001917
   0.00001889
   0.00001921
   0.00001965
   0.00001876
   0.00001849
   0.00001911
   0.00001889
   0.00001878
   0.00001880
   0.00001871
   0.00001874
   0.00001876
   0.00001833
   0.00001821
   0.00001792
   0.00001809
   0.00001859
   0.00001814
   0.00001798
   0.00001765
   0.00001798
   0.00001763
   0.00001791
   0.00001796
   0.00001750
   0.00001805
   0.00001718
   0.00001725
   0.00001722
   0.00001743
   0.00001743
   0.00001743
   0.00001692
   0.00001715
   0.00001684
   0.00001711
   0.00001657
   0.00001673
   0.00001665
   0.00001655
   0.00001661
   0.00001620
   0.00001644
   0.00001675
   0.00001632
   0.00001627
   0.00001612
   0.00001630
   0.00001599
   0.00001577
   0.00001561
   0.00001559
   0.00001593
   0.00001597
   0.00001547
   0.00001544
   0.00001599
   0.00001597
   0.00001572
   0.00001558
   0.00001538
   0.00001530
   0.00001541
   0.00001539
   0.00001566
   0.00001480
   0.00001480
   0.00001517
   0.00001509
   0.00001514
   0.00001496
   0.00001492
   0.00001468
   0.00001468
   0.00001460
   0.00001471
   0.00001410
   0.00001490
   0.00001449
   0.00001474
   0.00001456
   0.00001427
   0.00001397
   0.00001429
   0.00001411
   0.00001396
   0.00001392
   0.00001419
   0.00001373
   0.00001430
   0.00001403
   0.00001389
   0.00001384
   0.00001339
   0.00001417
   0.00001363
   0.00001365
   0.00001377
   0.00001341
   0.00001288
   0.00001324
   0.00001325
   0.00001331
   0.00001317
   0.00001353
   0.00001344
   0.00001290
   0.00001294
   0.00001309
   0.00001299
   0.00001280
   0.00001318
   0.00001255
   0.00001307
   0.00001265
   0.00001282
   0.00001233
   0.00001277
   0.00001273
   0.00001255
   0.00001217
   0.00001249
   0.00001235
   0.00001230
   0.00001206
   0.00001214
   0.00001232
   0.00001225
   0.00001226
   0.00001176
   0.00001212
   0.00001217
   0.00001166
   0.00001175
   0.00001169
   0.00001178
   0.00001170
   0.00001196
   0.00001213
   0.00001163
   0.00001172
   0.00001152
   0.00001165
   0.00001134
   0.00001166
   0.00001124
   0.00001116
   0.00001174
   0.00001124
   0.00001137
   0.00001144
   0.00001108
   0.00001095
   0.00001119
   0.00001114
   0.00001111
   0.00001103
   0.00001090
   0.00001115
   0.00001074
   0.00001099
   0.00001074
   0.00001072
   0.00001067
   0.00001041
   0.00001040
   0.00001076
   0.00001068
   0.00001053
   0.00001056
   0.00001025
   0.00001031
   0.00001046
   0.00001025
   0.00001033
   0.00001029
   0.00000988
   0.00001030
   0.00001007
   0.00001012
   0.00000984
   0.00000998
   0.00000990
   0.00000997
   0.00000994
   0.00001005
   0.00001001
   0.00000973
   0.00000986
   0.00000939
   0.00000969
   0.00000966
   0.00000964
   0.00000963
   0.00000926
   0.00000953
   0.00000977
   0.00000930
   0.00000931
   0.00000940
   0.00000930
   0.00000914
   0.00000938
   0.00000950
   0.00000935
   0.00000952
   0.00000926
   0.00000932
   0.00000898
   0.00000923
   0.00000913
   0.00000893
   0.00000903
   0.00000889
   0.00000889
   0.00000913
   0.00000885
   0.00000887
   0.00000862
   0.00000882
   0.00000881
   0.00000849
   0.00000864
   0.00000840
   0.00000831
   0.00000843
   0.00000866
   0.00000860
   0.00000862
   0.00000859
   0.00000856
   0.00000831
   0.00000825
   0.00000830
   0.00000822
   0.00000835
   0.00000834
   0.00000821
   0.00000818
   0.00000813
   0.00000820
   0.00000806
   0.00000773
   0.00000800
   0.00000780
   0.00000803
   0.00000809
   0.00000811
   0.00000789
   0.00000788
   0.00000782
   0.00000783
   0.00000794
   0.00000783
   0.00000756
   0.00000774
   0.00000758
   0.00000765
   0.00000753
   0.00000774
   0.00000751
   0.00000793
   0.00000755
   0.00000752
   0.00000732
   0.00000736
   0.00000775
   0.00000732
   0.00000727
   0.00000723
   0.00000727
   0.00000722
   0.00000719
   0.00000723
   0.00000718
   0.00000732
   0.00000730
   0.00000726
   0.00000702
   0.00000689
   0.00000706
   0.00000712
   0.00000696
   0.00000694
   0.00000691
   0.00000700
   0.00000691
   0.00000689
   0.00000700
   0.00000672
   0.00000665
   0.00000686
   0.00000671
   0.00000683
   0.00000655
   0.00000676
   0.00000679
   0.00000674
   0.00000673
   0.00000663
   0.00000653
   0.00000673
   0.00000648
   0.00000643
   0.00000651
   0.00000644
   0.00000613
   0.00000647
   0.00000645
   0.00000635
   0.00000661
   0.00000629
   0.00000637
   0.00000623
   0.00000619
   0.00000639
   0.00000605
   0.00000625
   0.00000591
   0.00000610
   0.00000588
   0.00000582
   0.00000612
   0.00000616
   0.00000609
   0.00000592
   0.00000575
   0.00000597
   0.00000587
   0.00000588
   0.00000573
   0.00000572
   0.00000615
   0.00000567
   0.00000593
   0.00000576
   0.00000581
   0.00000577
   0.00000585
   0.00000581
   0.00000563
   0.00000540
   0.00000563
   0.00000558
   0.00000576
   0.00000564
   0.00000565
   0.00000541
   0.00000546
   0.00000553
   0.00000548
   0.00000541
   0.00000545
   0.00000519
   0.00000531
   0.00000547
   0.00000519
   0.00000506
   0.00000537
   0.00000517
   0.00000540
   0.00000512
   0.00000534
   0.00000517
   0.00061723
   0.00008576
   0.00000128
   0.00000128
   0.00000130
   0.00000117
   0.00000120
   0.00000127
   0.00000121
   0.00000111
   0.00000117
   0.00000114
   0.00000123
   0.00000117
   0.00000128
   0.00000117
   0.00000111
   0.00000109
   0.00000120
   0.00000120
   0.00000112
   0.00000116
   0.00000115
   0.00000123
   0.00000106
   0.00000113
   0.00000113
   0.00000113
   0.00000108
   0.00000112
   0.00000110
   0.00000104
   0.00000118
   0.00000109
   0.00000104
   0.00000109
   0.00000103
   0.00000103
   0.00000103
   0.00000108
   0.00000119
   0.00000096
   0.00000104
   0.00000115
   0.00000105
   0.00000104
   0.00000109
   0.00000103
   0.00000110
   0.00000110
   0.00000116
   0.00000104
   0.00000106
   0.00000107
   0.00000102
   0.00000109
   0.00000100
   0.00000112
   0.00000102
   0.00000106
   0.00000103
   0.00000106
   0.00000100
   0.00000099
   0.00000107
   0.00000097
   0.00000096
   0.00000095
   0.00000100
   0.00000103
   0.00000097
   0.00000098
   0.00000094
   0.00000094
   0.00000099
   0.00000092
   0.00000099
   0.00000094
   0.00000096
   0.00000094
   0.00000102
   0.00000096
   0.00000090
   0.00000087
   0.00000094
   0.00000094
   0.00000099
   0.00000096
   0.00000092
   0.00000088
   0.00000101
   0.00000100
   0.00000082
   0.00000098
   0.00000094
   0.00000087
   0.00000086
   0.00000089
   0.00000090
   0.00000084
   0.00000087
   0.00000089
   0.00000084
   0.00000097
   0.00000080
   0.00000091
   0.00000082
   0.00000092
   0.00000086
   0.00000091
   0.00000092
   0.00000086
   0.00000082
   0.00000084
   0.00000090
   0.00000090
   0.00000091
   0.00000079
   0.00000085
   0.00000083
   0.00000093
   0.00000085
   0.00000087
   0.00000088
   0.00000078
   0.00000089
   0.00000077
   0.00000087
   0.00000084
   0.00000072
   0.00000076
   0.00000080
   0.00000078
   0.00000085
   0.00000072
   0.00000079
   0.00000082
   0.00000074
   0.00000082
   0.00000079
   0.00000080
   0.00000079
   0.00000085
   0.00000072
   0.00000084
   0.00000074
   0.00000078
   0.00000073
   0.00000069
   0.00000067
   0.00000080
   0.00000074
   0.00000071
   0.00000079
   0.00000080
   0.00000078
   0.00000075
   0.00000090
   0.00000081
   0.00000079
   0.00000079
   0.00000067
   0.00000085
   0.00000075
   0.00000073
   0.00000064
   0.00000071
   0.00000083
   0.00000080
   0.00000072
   0.00000074
   0.00000073
   0.00000067
   0.00000072
   0.00000074
   0.00000077
   0.00000076
   0.00000068
   0.00000069
   0.00000064
   0.00000071
   0.00000079
   0.00000074
   0.00000072
   0.00000068
   0.00000074
   0.00000073
   0.00000072
   0.00000075
   0.00000072
   0.00000074
   0.00000075
   0.00000073
   0.00000076
   0.00000068
   0.00000067
   0.00000068
   0.00000067
   0.00000072
   0.00000068
   0.00000067
   0.00000062
   0.00000066
   0.00000066
   0.00000064
   0.00000069
   0.00000067
   0.00000065
   0.00000080
   0.00000070
   0.00000068
   0.00000069
   0.00000073
   0.00000069
   0.00000070
   0.00000061
   0.00000061
   0.00000064
   0.00000063
   0.00000058
   0.00000066
   0.00000064
   0.00000060
   0.00000065
   0.00000063
   0.00000068
   0.00000062
   0.00000059
   0.00000066
   0.00000062
   0.00000062
   0.00000065
   0.00000060
   0.00000058
   0.00000058
   0.00000066
   0.00000059
   0.00000062
   0.00000058
   0.00000054
   0.00000067
   0.00000059
   0.00000063
   0.00000057
   0.00000053
   0.00000064
   0.00000061
   0.00000057
   0.00000062
   0.00000066
   0.00000053
   0.00000055
   0.00000056
   0.00000056
   0.00000050
   0.00000057
   0.00000059
   0.00000058
   0.00000058
   0.00000053
   0.00000054
   0.00000051
   0.00000061
   0.00000050
   0.00000054
   0.00000062
   0.00000051
   0.00000055
   0.00000055
   0.00000055
   0.00000051
   0.00000046
   0.00000055
   0.00000051
   0.00000050
   0.00000051
   0.00000047
   0.00000050
   0.00000054
   0.00000049
   0.00000050
   0.00000051
   0.00000048
   0.00000049
   0.00000045
   0.00000052
   0.00000051
   0.00000045
   0.00000045
   0.00000056
   0.00000048
   0.00000046
   0.00000045
   0.00000047
   0.00000042
   0.00000047
   0.00000044
   0.00000044
   0.00000045
   0.00000048
   0.00000045
   0.00000041
   0.00000041
   0.00000051
   0.00000049
   0.00000046
   0.00000040
   0.00000044
   0.00000041
   0.00000039
   0.00000037
   0.00000042
   0.00000038
   0.00000037
   0.00000043
   0.00000039
   0.00000041
   0.00000046
   0.00000036
   0.00000039
   0.00000041
   0.00000038
   0.00000034
   0.00000036
   0.00000035
   0.00000035
   0.00000033
   0.00000034
   0.00000032
   0.00000032
   0.00000033
   0.00000033
   0.00000032
   0.00000040
   0.00000030
   0.00000034
   0.00000035
   0.00000034
   0.00000042
   0.00000028
   0.00000029
   0.00000031
   0.00000042
   0.00000037
   0.00000031
   0.00000034
   0.00000035
   0.00000032
   0.00000029
   0.00000036
   0.00000031
   0.00000027
   0.00000025
   0.00000030
   0.00000027
   0.00000034
   0.00000027
   0.00000029
   0.00000026
   0.00000029
   0.00000025
   0.00000029
   0.00000028
   0.00000029
   0.00000024
   0.00000022
   0.00000025
   0.00000025
   0.00000025
   0.00000028
   0.00000020
   0.00000024
   0.00000022
   0.00000022
   0.00000028
   0.00000025
   0.00000022
   0.00000022
   0.00000023
   0.00000025
   0.00000025
   0.00000021
   0.00000020
   0.00000027
   0.00000022
   0.00000018
   0.00000021
   0.00000020
   0.00000018
   0.00000019
   0.00000020
   0.00000018
   0.00000021
   0.00000019
   0.00000018
   0.00000019
   0.00000019
   0.00000019
   0.00000022
   0.00000024
   0.00000017
   0.00000015
   0.00000016
   0.00000014
   0.00000015
   0.00000016
   0.00000017
   0.00000018
   0.00000018
   0.00000017
   0.00000015
   0.00000016
   0.00000017
   0.00000015
   0.00000013
   0.00000017
   0.00000015
   0.00000015
   0.00000015
   0.00000015
   0.00000014
   0.00000013
   0.00000017
   0.00000014
   0.00000015
   0.00000013
   0.00000017
   0.00000014
   0.00000009
   0.00000013
   0.00000009
   0.00000012
   0.00000012
   0.00000012
   0.00000013
   0.00000009
   0.00000012
   0.00000011
   0.00000008
   0.00000013
   0.00000012
   0.00000007
   0.00000011
   0.00000008
   0.00000012
   0.00000011
   0.00000010
   0.00000010
   0.00000008
   0.00000012
   0.00000009
   0.00000010
   0.00000009
   0.00000009
   0.00000011
   0.00000009
   0.00000011
   0.00000007
   0.00000008
   0.00000009
   0.00000010
   0.00000009
   0.00000009
   0.00000010
   0.00000009
   0.00000010
   0.00000008
   0.00000008
   0.00000007
   0.00000009
   0.00000008
   0.00000010
   0.00000008
   0.00000007
   0.00000008
   0.00000007
   0.00000005
   0.00000009
   0.00000005
   0.00000008
   0.00000009
   0.00000006
   0.00000007
   0.00000006
   0.00000006
   0.00000006
   0.00000004
   0.00000005
   0.00000005
   0.00000006
   0.00000006
   0.00000006
   0.00000005
   0.00000006
   0.00000004
   0.00000005
   0.00000007
   0.00000005
   0.00000006
   0.00000005
   0.00000007
   0.00000006
   0.00000006
   0.00000006
   0.00000006
   0.00000006
   0.00000009
   0.00000005
   0.00000004
   0.00000005
   0.00000005
   0.00000005
   0.00000005
   0.00000003
   0.00000006
   0.00000005
   0.00000005
   0.00000007
   0.00000004
   0.00000006
   0.00000006
   0.00000006
   0.00000005
   0.00000004
   0.00000004
   0.00000003
   0.00000005
   0.00000003
   0.00000005
   0.00000007
   0.00000005
   0.00000004
   0.00000005
   0.00000005
   0.00000004
   0.00000003
   0.00000004
   0.00000004
   0.00000004
   0.00000005
   0.00000005
   0.00000004
   0.00000003
   0.00000006
   0.00000005
   0.00000004
   0.00000006
   0.00000004
   0.00000005
   0.00000004
   0.00000005
   0.00000005
   0.00000004
   0.00000005
   0.00000005
   0.00000003
   0.00000004
   0.00000004
   0.00000004
   0.00000004
   0.00000003
   0.00000004
   0.00000004
   0.00000004
   0.00000004
   0.00000005
   0.00000005
   0.00000004
   0.00000006
   0.00000002
   0.00000004
   0.00000004
   0.00000003
   0.00000005
   0.00000003
   0.00000005
   0.00000003
   0.00000002
   0.00000003
   0.00000005
   0.00000002
   0.00000003
   0.00000004
   0.00000003
   0.00000005
   0.00000004
   0.00000004
   0.00000003
   0.00000005
   0.00000004
   0.00000004
   0.00000005
   0.00000004
   0.00000003
   0.00000005
   0.00000003
   0.00000004
   0.00000004
   0.00000004
   0.00000003
   0.00000005
   0.00000002
   0.00000005
   0.00000004
   0.00000003
   0.00000003
   0.00000004
   0.00000003
   0.00000003
   0.00000004
   0.00000005
   0.00000003
   0.00000004
   0.00000003
   0.00000002
   0.00000003
   0.00000004
   0.00000002
   0.00000004
   0.00000003
   0.00000004
   0.00000004
   0.00000004
   0.00000005
   0.00000005
   0.00000005
   0.00000003
   0.00000004
   0.00000004
   0.00000004
   0.00000004
   0.00000003
   0.00000004
   0.00000003
   0.00000005
   0.00000003
   0.00000003
   0.00000003
   0.00000002
   0.00000003
   0.00000003
   0.00000003
   0.00000003
   0.00000004
   0.00000005
   0.00000004
   0.00000004
   0.00000004
   0.00000005
   0.00000002
   0.00000005
   0.00000003
   0.00000002
   0.00000003
   0.00000004
   0.00000003
   0.00000003
   0.00000004
   0.00000004
   0.00000003
   0.00000003
   0.00000005
   0.00000003
   0.00000003
   0.00000003
   0.00000004
   0.00000005
   0.00000004
   0.00000003
   0.00000003
   0.00000002
   0.00000004
   0.00000003
   0.00000004
   0.00000003
   0.00000003
   0.00000003
   0.00000003
   0.00000003
   0.00000004
   0.00000004
   0.00000002
   0.00000004
   0.00000003
   0.00000003
   0.00000003
   0.00000003
   0.00000006
   0.00000003
   0.00000004
   0.00000004
   0.00000003
   0.00000003
   0.00000004
   0.00000003
   0.00000002
   0.00000003
   0.00000003
   0.00000004
   0.00000004
   0.00000003
   0.00000003
   0.00000003
   0.00000003
   0.00000003
   0.00000003
   0.00000004
   0.00000003
   0.00000004
   0.00000003
   0.00000003
   0.00000004
   0.00000003
   0.00000004
   0.00000003
   0.00000003
   0.00000004
   0.00000003
   0.00000004
   0.00000005
   0.00000004
   0.00000003
   0.00000003
   0.00000003
   0.00000003
   0.00000003
   0.00000003
   0.00000005
   0.00000004
   0.00000004
   0.00000002
   0.00000004
   0.00000003
   0.00000003
   0.00000004
   0.00000004
   0.00000003
   0.00000004
   0.00000003
   0.00000003
   0.00000004
   0.00000003
   0.00000002
   0.00000002
   0.00000002
   0.00000002
   0.00000004
   0.00000003
   0.00000003
   0.00000003
   0.00000002
   0.00000003
   0.00000002
   0.00000003
   0.00000002
   0.00000002
   0.00000003
   0.00000003
   0.00000004
   0.00000003
   0.00000003
   0.00000004
   0.00000004
   0.00000002
   0.00000003
   0.00000003
   0.00000003
   0.00000003
   0.00000002
   0.00000004
   0.00000005
   0.00000003
   0.00000003
   0.00000003
   0.00000004
   0.00000003
   0.00000002
   0.00000004
   0.00000003
   0.00000003
   0.00000003
   0.00000003
   0.00000003
   0.00000002
   0.00000004
   0.00000004
   0.00000003
   0.00000004
   0.00000003
   0.00000003
   0.00000003
   0.00000004
   0.00000004
   0.00000002
   0.00000003
   0.00000003
   0.00000005
   0.00000004
   0.00000003
   0.00000003
   0.00000001
   0.00000003
   0.00000003
   0.00000002
   0.00000003
   0.00000004
   0.00000003
   0.00000003
   0.00000004
   0.00000003
   0.00000002
   0.00000003
   0.00000003
   0.00000003
   0.00000003
   0.00000004
   0.00000002
   0.00000003
   0.00000004
   0.00000002
   0.00000002
   0.00000003
   0.00000003
   0.00000002
   0.00000004
   0.00000003
   0.00000004
   0.00000004
   0.00000003
   0.00000003
   0.00000003
   0.00000003
   0.00000002
   0.00000003
   0.00000003
   0.00000003
   0.00000005
   0.00000002
   0.00000004
   0.00000002
   0.00000002
   0.00000003
   0.00000003
   0.00000003
   0.00000004
   0.00000003
   0.00000002
   0.00000003
   0.00000002
   0.00000002
   0.00000004
   0.00000002
   0.00000003
   0.00000004
   0.00000003
   0.00000003
   0.00000002
   0.00000003
   0.00000005
   0.00000004
   0.00000003
   0.00000003
   0.00000002
   0.00000002
   0.00000004
   0.00000004
   0.00000003
   0.00000003
   0.00000005
   0.00000003
   0.00000003
   0.00000003
   0.00000003
   0.00000004
   0.00000002
   0.00000002
   0.00000003
   0.00000003
   0.00000003
   0.00000003
   0.00000003
   0.00000002
   0.00000003
   0.00000003
   0.00000003
   0.00000003
   0.00000002
   0.00000003
   0.00000003
   0.00000002
   0.00000003
   0.00000002
   0.00000004
   0.00000003
   0.00000003
   0.00000003
   0.00000003
   0.00000003
   0.00000003
   0.00000003
   0.00000003
   0.00000003
   0.00000003
   0.00000003
   0.00000002
   0.00000003
   0.00000003
   0.00000002
   0.00000001
   0.00000003
   0.00000004
   0.00000003
   0.00000002
   0.00000003
   0.00000001
   0.00000002
   0.00000002
   0.00000002
   0.00000003
   0.00000002
   0.00000002
   0.00000004
   0.00000001
   0.00000003
   0.00000002
   0.00000003
   0.00000002
   0.00000003
   0.00000003
   0.00000004
   0.00000003
   0.00000004
   0.00000003
   0.00000002
   0.00000003
   0.00000003
   0.00000003
   0.00000003
   0.00000003
   0.00000003
   0.00000002
   0.00000003
   0.00000002
   0.00000003
   0.00000003
   0.00000003
   0.00000002
   0.00000003
   0.00000003
   0.00000003
   0.00000003
   0.00000003
   0.00000003
   0.00000003
   0.00000003
   0.00000004
   0.00000002
   0.00000002
   0.00000003
   0.00000002
   0.00000005
   0.00000004
   0.00000003
   0.00000003
   0.00000003
   0.00000004
   0.00000002
   0.00000003
   0.00000003
   0.00000002
   0.00000002
   0.00000003
   0.00000002
   0.00000002
   0.00000003
   0.00000002
   0.00000002
   0.00000002
   0.00000003
   0.00000002
   0.00000003
   0.00000004
   0.00000003
   0.00000002
   0.00000002
   0.00000003
   0.00000002
   0.00000002
   0.00000002
   0.00000001
   0.00000003
   0.00000003
   0.00000002
   0.00000002
   0.00000004
   0.00000003
   0.00000002
   0.00000003
   0.00000004
   0.00000004
   0.00000004
   0.00000002
   0.00000002
   0.00000002
   0.00000003
   0.00000003
   0.00000003
   0.00000003
   0.00000003
   0.00000003
   0.00000002
   0.00000005
   0.00000003
   0.00000003
   0.00000002
   0.00000003
   0.00000004
   0.00000003
   0.00000003
   0.00000002
   0.00000003
   0.00000002
   0.00000003
   0.00000003
   0.00010324
